{"response":{"status":"ok","userTier":"developer","total":14274,"startIndex":1,"pageSize":10,"currentPage":1,"pages":1428,"orderBy":"relevance","results":[{"id":"football/2017/jun/15/us-soccer-payment-jurgen-klinsmann-firing","type":"article","sectionId":"football","sectionName":"Football","webPublicationDate":"2017-06-15T15:40:56Z","webTitle":"US Soccer financials take $6.2m hit for firing Jürgen Klinsmann","webUrl":"https://www.theguardian.com/football/2017/jun/15/us-soccer-payment-jurgen-klinsmann-firing","apiUrl":"https://content.guardianapis.com/football/2017/jun/15/us-soccer-payment-jurgen-klinsmann-firing","isHosted":false},{"id":"football/2017/jun/06/david-beckham-miami-soccer-stadium-approved-mls","type":"article","sectionId":"football","sectionName":"Football","webPublicationDate":"2017-06-06T18:18:32Z","webTitle":"David Beckham's Miami soccer stadium land sale gets approval","webUrl":"https://www.theguardian.com/football/2017/jun/06/david-beckham-miami-soccer-stadium-approved-mls","apiUrl":"https://content.guardianapis.com/football/2017/jun/06/david-beckham-miami-soccer-stadium-approved-mls","isHosted":false},{"id":"football/2017/apr/05/us-womens-national-soccer-team-federation-dispute","type":"article","sectionId":"football","sectionName":"Football","webPublicationDate":"2017-04-05T14:52:08Z","webTitle":"US women's national soccer team resolves pay dispute with federation","webUrl":"https://www.theguardian.com/football/2017/apr/05/us-womens-national-soccer-team-federation-dispute","apiUrl":"https://content.guardianapis.com/football/2017/apr/05/us-womens-national-soccer-team-federation-dispute","isHosted":false},{"id":"football/2017/aug/01/didier-drogba-eden-hazard-owners-us-soccer-usl-nasl","type":"article","sectionId":"football","sectionName":"Football","webPublicationDate":"2017-08-01T08:00:12Z","webTitle":"Why are foreign soccer stars buying up lower league teams in the US?","webUrl":"https://www.theguardian.com/football/2017/aug/01/didier-drogba-eden-hazard-owners-us-soccer-usl-nasl","apiUrl":"https://content.guardianapis.com/football/2017/aug/01/didier-drogba-eden-hazard-owners-us-soccer-usl-nasl","isHosted":false},{"id":"football/2017/mar/04/us-soccer-players-stand-respectfully-national-anthem","type":"article","sectionId":"football","sectionName":"Football","webPublicationDate":"2017-03-04T21:21:16Z","webTitle":"US Soccer orders players to 'stand respectfully' during national anthem","webUrl":"https://www.theguardian.com/football/2017/mar/04/us-soccer-players-stand-respectfully-national-anthem","apiUrl":"https://content.guardianapis.com/football/2017/mar/04/us-soccer-players-stand-respectfully-national-anthem","isHosted":false},{"id":"crosswords/crossword-blog/2017/mar/06/crossword-roundup-from-snooker-to-soccer-via-croquet-and-rugby","type":"article","sectionId":"crosswords","sectionName":"Crosswords","webPublicationDate":"2017-03-06T12:12:08Z","webTitle":"Crossword roundup: from snooker to soccer, via croquet and rugby","webUrl":"https://www.theguardian.com/crosswords/crossword-blog/2017/mar/06/crossword-roundup-from-snooker-to-soccer-via-croquet-and-rugby","apiUrl":"https://content.guardianapis.com/crosswords/crossword-blog/2017/mar/06/crossword-roundup-from-snooker-to-soccer-via-croquet-and-rugby","isHosted":false},{"id":"us-news/2017/feb/28/tibet-womens-soccer-visas-denied","type":"article","sectionId":"us-news","sectionName":"US news","webPublicationDate":"2017-02-28T16:45:21Z","webTitle":"Tibetan women's soccer players denied US visas for Texas tournament","webUrl":"https://www.theguardian.com/us-news/2017/feb/28/tibet-womens-soccer-visas-denied","apiUrl":"https://content.guardianapis.com/us-news/2017/feb/28/tibet-womens-soccer-visas-denied","isHosted":false},{"id":"football/2017/jun/11/david-beckham-miami-dream","type":"article","sectionId":"football","sectionName":"Football","webPublicationDate":"2017-06-11T07:00:49Z","webTitle":"Beckham's Miami soccer dream inches closer – but glitz is in short supply","webUrl":"https://www.theguardian.com/football/2017/jun/11/david-beckham-miami-dream","apiUrl":"https://content.guardianapis.com/football/2017/jun/11/david-beckham-miami-dream","isHosted":false},{"id":"football/blog/2017/may/16/carli-lloyd-alex-morgan-playing-abroad-womens-football","type":"article","sectionId":"football","sectionName":"Football","webPublicationDate":"2017-05-16T09:00:10Z","webTitle":"The happy exiles: why US women's soccer stars choose to play abroad","webUrl":"https://www.theguardian.com/football/blog/2017/may/16/carli-lloyd-alex-morgan-playing-abroad-womens-football","apiUrl":"https://content.guardianapis.com/football/blog/2017/may/16/carli-lloyd-alex-morgan-playing-abroad-womens-football","isHosted":false},{"id":"football/2017/apr/25/soccer-refugees-trump-travel-ban","type":"article","sectionId":"football","sectionName":"Football","webPublicationDate":"2017-04-25T09:00:44Z","webTitle":"'Everything is tough': the soccer refugees threatened by Trump's travel ban","webUrl":"https://www.theguardian.com/football/2017/apr/25/soccer-refugees-trump-travel-ban","apiUrl":"https://content.guardianapis.com/football/2017/apr/25/soccer-refugees-trump-travel-ban","isHosted":false}]}}